<?xml version="1.0" encoding="utf-8"?>
<!-- Generator: Adobe Illustrator 14.0.0, SVG Export Plug-In . SVG Version: 6.00 Build 43363)  -->
<!DOCTYPE svg PUBLIC "-//W3C//DTD SVG 1.1//EN" "http://www.w3.org/Graphics/SVG/1.1/DTD/svg11.dtd">
<svg version="1.1" id="Layer_1" xmlns="http://www.w3.org/2000/svg" xmlns:xlink="http://www.w3.org/1999/xlink" x="0px" y="0px"
	 width="360px" height="360px" viewBox="0 0 360 360" enable-background="new 0 0 360 360" xml:space="preserve">
<g>
	<path d="M137.057,169.564c3.178,9.087,7.772,17.425,13.074,25.438c5.096,7.66,10.643,14.987,16.85,21.758
		c9.071,9.919,19.191,18.408,32.146,22.73c5.031,1.692,10.266,2.857,15.469,3.974c3.896,0.829,7.787,0.373,11.365-1.623
		c0.096-0.067,0.272-0.034,0.409-0.054c3.588-2.663,7.186-5.319,10.786-7.982c0.069-0.137,0.098-0.289,0.177-0.402
		c3.135-4.05,3.186-8.025,0.125-12.152c-3.433-4.638-6.84-9.282-10.285-13.899c-3.209-4.293-8.627-5.111-13.027-2.027
		c-1.415,0.973-2.826,1.992-4.394,2.634c-7.593,3.227-15.065,2.52-22.379-0.946c-5.713-2.723-10.214-6.931-14.13-11.79
		c-4.396-5.429-8.246-11.148-10.656-17.796c-4.376-12.002-0.605-25.881,8.414-31.779c3.861-2.511,4.309-8.286,1.597-12.052
		c-3.656-5.069-7.363-10.129-11.187-15.048c-0.901-1.176-2.33-2.093-3.696-2.757c-2.531-1.255-5.103-0.591-7.604,0.335
		c-3.535,2.601-7.052,5.196-10.583,7.799c-2.627,2.737-4.505,5.903-5.082,9.707C132.612,145.79,132.947,157.794,137.057,169.564z"/>
	<g>
		<path d="M186.557,295.343c-63.901,0-115.885-51.975-115.885-115.864c0-63.903,51.983-115.892,115.885-115.892
			c63.895,0,115.876,51.988,115.876,115.892C302.433,243.368,250.451,295.343,186.557,295.343L186.557,295.343z M186.557,77.719
			c-56.113,0-101.756,45.646-101.756,101.76c0,56.096,45.643,101.745,101.756,101.745c56.106,0,101.751-45.649,101.751-101.745
			C288.308,123.365,242.663,77.719,186.557,77.719L186.557,77.719z"/>
	</g>
</g>
</svg>
