<?xml version="1.0" encoding="utf-8"?>
<!-- Generator: Adobe Illustrator 14.0.0, SVG Export Plug-In . SVG Version: 6.00 Build 43363)  -->
<!DOCTYPE svg PUBLIC "-//W3C//DTD SVG 1.1//EN" "http://www.w3.org/Graphics/SVG/1.1/DTD/svg11.dtd">
<svg version="1.1" id="Layer_1" xmlns="http://www.w3.org/2000/svg" xmlns:xlink="http://www.w3.org/1999/xlink" x="0px" y="0px"
	 width="360px" height="360px" viewBox="0 0 360 360" enable-background="new 0 0 360 360" xml:space="preserve">
<g id="Layer_1_1_" display="none">
	<g display="inline">
		<g>
			<path fill="#D78037" d="M287.715,95.969H125.312c-19.341,0-34.989,15.667-34.989,34.988v162.395
				c0,19.336,15.648,35.002,34.989,35.002h162.403c19.318,0,34.982-15.666,34.982-35.002V130.957
				C322.697,111.635,307.033,95.969,287.715,95.969z M206.984,304.369c-50.176,0-90.851-40.669-90.851-90.848
				c0-50.172,40.674-90.847,90.851-90.847c50.17,0,90.849,40.674,90.849,90.847C297.833,263.7,257.154,304.369,206.984,304.369z"/>
		</g>
		<g>
			<path fill="#D78037" d="M252.273,252.251c0.041-4.337,0.113-8.676-0.035-13.007c-0.135-3.949-1.498-7.637-3.051-11.232
				c-3.655-8.479-8.578-16.229-13.896-23.734c-1.265-1.778-3.063-2.622-5.241-2.647c-0.949-0.01-1.896,0-2.988,0
				c0-1.185,0-2.323,0-3.455c0-1.184,0.002-2.364,0-3.548c0-2.736-1.146-4.363-3.754-5.189c-2.299-0.734-4.537-0.564-6.625,0.735
				c-1.471,0.914-2.252,2.228-2.226,4.009c0.034,2.332,0.008,4.659,0.008,6.993c0,0.099-0.021,0.193-0.045,0.374
				c-4.142,0-8.291,0-12.592,0c0-0.674,0-1.376,0-2.084c0.003-1.674-0.048-3.351,0.026-5.023c0.092-2.268-0.992-3.789-2.948-4.674
				c-2.517-1.139-5.046-1.057-7.449,0.396c-1.481,0.898-2.255,2.211-2.228,4.006c0.043,2.451,0.014,4.907,0.014,7.475
				c-1.104,0-2.113-0.029-3.117,0.008c-1.986,0.072-3.709,0.815-4.811,2.474c-5.913,8.884-11.5,17.949-15.562,27.875
				c-1.682,4.106-1.861,8.343-1.762,12.661c0.055,2.301,0.023,4.599,0.019,6.896c-0.019,3.496,1.658,5.723,5.06,6.686
				c0.089,0.025,0.165,0.094,0.251,0.148c25.883,0,51.771,0,77.66,0c0.24-0.084,0.481-0.177,0.729-0.254
				C250.372,257.355,252.245,255.027,252.273,252.251z M208.52,252.092c-10.625,0.066-19.228-8.29-19.293-18.744
				c-0.07-10.379,8.35-19.076,18.517-19.117c10.835-0.045,19.276,8.238,19.345,18.979
				C227.146,243.361,218.625,252.025,208.52,252.092z"/>
			<path fill="#D78037" d="M234.346,167.148c-6.343-1.965-12.854-2.845-19.461-3.183c-6.337-0.324-12.67-0.235-18.979,0.421
				c-9.209,0.962-18.065,3.092-25.777,8.495c-3.005,2.095-5.791,4.517-8.537,6.946c-2.065,1.821-3.404,4.155-3.761,6.959
				c-0.009,0.088-0.09,0.166-0.138,0.248c0,3.088,0,6.175,0,9.264c0.05,0.088,0.121,0.166,0.146,0.253
				c0.961,3.403,3.145,5.053,6.682,5.059c3.977,0.004,7.954,0.01,11.924-0.006c3.696-0.017,6.37-2.685,6.475-6.392
				c0.037-1.174,0.057-2.382,0.328-3.521c1.328-5.521,4.794-9.373,9.712-12.007c3.843-2.051,8.019-2.823,12.323-3.006
				c4.806-0.193,9.562,0.01,14.236,1.396c8.434,2.502,14.592,10.273,14.16,17.693c-0.191,3.178,2.826,5.784,6.038,5.825
				c4.306,0.05,8.607,0.07,12.909-0.03c1.025-0.021,2.115-0.439,3.051-0.918c1.732-0.884,2.422-2.584,2.934-4.347
				c0-3.021,0-6.049,0-9.063c-0.432-2.588-1.418-4.924-3.285-6.794C249.336,174.429,242.539,169.69,234.346,167.148z"/>
			<path fill="#D78037" d="M208.25,220.564c-6.848-0.064-12.641,5.55-12.701,12.3c-0.058,7.097,5.521,12.854,12.518,12.901
				c6.89,0.039,12.633-5.576,12.688-12.42C220.812,226.309,215.259,220.63,208.25,220.564z"/>
		</g>
		<path fill="#FFFFFF" stroke="#D78037" stroke-width="4" stroke-miterlimit="10" d="M144.514,92.071
			c0,31.055-25.167,56.214-56.208,56.214c-31.046,0-56.21-25.16-56.21-56.214c0-31.036,25.164-56.206,56.21-56.206
			C119.347,35.865,144.514,61.035,144.514,92.071z"/>
		<g>
			<path fill="#D78037" d="M84.572,70.86h-8.031l0.34-1.974c5.377,0,15.452-0.34,24.506-0.885l-8.102,46.083h9.054l-0.341,1.974
				H67.76l0.34-1.974h8.781L84.572,70.86z"/>
		</g>
	</g>
</g>
<g id="Layer_2" display="none">
	<g display="inline">
		<g>
			<path fill="#DA5C38" d="M287.811,96.568H125.411c-19.344,0-34.994,15.666-34.994,34.988v162.395
				c0,19.336,15.65,35.002,34.994,35.002h162.399c19.318,0,34.982-15.666,34.982-35.002V131.557
				C322.793,112.234,307.129,96.568,287.811,96.568z M207.08,304.969c-50.176,0-90.848-40.669-90.848-90.848
				c0-50.172,40.672-90.846,90.848-90.846c50.17,0,90.848,40.674,90.848,90.846C297.928,264.3,257.25,304.969,207.08,304.969z"/>
			<path fill="#DA5C38" d="M251.582,173.294h-89.807c-7.707,0-13.949,6.237-13.949,13.95v47.876c0,7.702,6.242,13.955,13.949,13.955
				h9.023l-10.191,19.286l47.152-19.286h43.822c7.707,0,13.953-6.253,13.953-13.955v-47.876
				C265.535,179.531,259.289,173.294,251.582,173.294z M177.566,220.953c-5.771,0-10.459-4.701-10.459-10.471
				c0-5.775,4.688-10.449,10.459-10.449c5.784,0,10.465,4.674,10.465,10.449C188.031,216.252,183.35,220.953,177.566,220.953z
				 M208.068,220.953c-5.767,0-10.449-4.701-10.449-10.471c0-5.775,4.684-10.449,10.449-10.449c5.783,0,10.467,4.674,10.467,10.449
				C218.535,216.252,213.852,220.953,208.068,220.953z M238.758,220.953c-5.775,0-10.455-4.701-10.455-10.471
				c0-5.775,4.68-10.449,10.455-10.449c5.779,0,10.467,4.674,10.467,10.449C249.225,216.252,244.537,220.953,238.758,220.953z"/>
		</g>
		<path fill="#FFFFFF" stroke="#DA5C38" stroke-width="4" stroke-miterlimit="10" d="M146.625,92.67
			c0,31.055-25.166,56.215-56.207,56.215c-31.045,0-56.211-25.16-56.211-56.215c0-31.035,25.166-56.205,56.211-56.205
			C121.459,36.465,146.625,61.635,146.625,92.67z"/>
		<g>
			<path fill="#DA5C38" d="M109.555,101.861c-1.43,9.121-7.012,13.818-16.199,13.818c-8.17,0-13.615-3.132-17.699-3.132
				c-2.109,0-3.402,1.089-3.744,3.132H69.53c0-19.4,24.506-21.715,24.506-38.324c0-5.037-2.178-8.848-7.352-8.848
				c-1.156,0-4.697,0.816-4.697,2.313c0,2.042,5.787,2.042,5.787,7.42c0,4.356-3.473,6.603-7.488,6.603
				c-4.355,0-7.146-3.131-7.146-7.352c0-8.44,10.414-11.027,17.152-11.027c12.186,0,20.965,4.629,20.965,13.546
				c0,9.189-9.188,12.729-16.812,14.091c-6.67,1.156-17.221,4.9-18.855,12.252l0.137,0.137c3.947-3.881,8.373-4.901,13.818-4.901
				c5.445,0,10.211,2.246,14.295,2.246c1.564,0,2.926-0.341,3.471-1.974H109.555z"/>
		</g>
	</g>
</g>
<g id="Layer_3" display="none">
	<g display="inline">
		<g>
			<g>
				<path fill="#DF3650" d="M187.59,271.104c-3.344,0-6.555-1.33-8.92-3.703l-32.236-32.325c-4.91-4.931-4.9-12.904,0.027-17.82
					c4.93-4.914,12.904-4.897,17.818,0.028l23.055,23.124l61.34-65.089c4.777-5.063,12.752-5.298,17.816-0.529
					c5.059,4.778,5.301,12.749,0.525,17.812l-70.255,74.545c-2.344,2.479-5.588,3.908-8.993,3.957
					C187.711,271.104,187.646,271.104,187.59,271.104L187.59,271.104z"/>
			</g>
			<path fill="#DF3650" d="M287.807,96.57H125.41c-19.344,0-34.994,15.665-34.994,34.983v162.399
				c0,19.336,15.65,34.997,34.994,34.997h162.396c19.319,0,34.983-15.661,34.983-34.997V131.554
				C322.791,112.235,307.127,96.57,287.807,96.57z M207.078,304.971c-50.174,0-90.848-40.672-90.848-90.848
				c0-50.172,40.674-90.846,90.848-90.846c50.174,0,90.85,40.674,90.85,90.846C297.928,264.299,257.252,304.971,207.078,304.971z"/>
		</g>
		<path fill="#FFFFFF" stroke="#DF3650" stroke-width="4" stroke-miterlimit="10" d="M146.627,92.672
			c0,31.055-25.168,56.214-56.207,56.214c-31.049,0-56.211-25.16-56.211-56.214c0-31.036,25.162-56.206,56.211-56.206
			C121.459,36.467,146.627,61.637,146.627,92.672z"/>
		<g>
			<path fill="#DF3650" d="M93.646,91.27v0.136c7.08,1.157,15.18,3.744,15.18,12.321c0,5.718-4.084,13.954-22.871,13.954
				c-14.703,0-17.494-6.603-17.494-10.551c0-4.493,3.131-7.692,7.623-7.692c4.018,0,7.352,2.247,7.352,6.807
				c0,6.466-6.602,5.718-6.602,7.215c0,0.749,2.586,2.246,5.922,2.246c3.879,0,5.514-2.791,6.807-5.99
				c1.43-3.404,2.246-9.053,2.246-12.797c0-2.995-1.156-4.969-4.355-4.969c-0.613,0-1.227,0.068-1.838,0.068
				c-0.885,0-1.635-0.204-1.635-1.225c0-0.613,0.816-1.021,1.361-1.021c0.75,0,1.498,0.204,2.314,0.204
				c1.361,0,2.246-0.272,3.268-1.226c2.52-2.45,3.268-8.645,3.268-12.048c0-3.744-2.52-5.922-6.059-5.922
				c-0.885,0-4.764,0.136-4.764,1.566c0,1.021,4.424,1.906,4.424,6.603c0,4.424-3.199,6.535-7.352,6.535
				c-6.059,0-6.738-5.718-6.738-7.624c0-4.492,4.219-9.394,15.656-9.394c14.293,0,21.305,3.676,21.305,11.572
				c0,8.509-10.619,10.279-17.018,11.3V91.27z"/>
		</g>
	</g>
</g>
<g id="Layer_4">
	<g>
		<g>
			<g>
				<path fill="#BC2A29" d="M151.04,242.154h16.381c-0.844,1.564-1.328,3.347-1.328,5.244c0,6.064,4.918,10.992,10.989,10.992
					c6.062,0,10.977-4.928,10.977-10.992c0-1.897-0.481-3.68-1.332-5.244h38.936v-68.609H151.04V242.154z"/>
				<path fill="#BC2A29" d="M271.734,207.852l-11.023-21.789h-27.04v52.147c-2.995,1.957-4.985,5.329-4.985,9.188
					c0,6.064,4.928,10.992,11.002,10.992c6.059,0,10.979-4.928,10.979-10.992c0-1.897-0.486-3.68-1.336-5.244h22.406v-34.303
					H271.734z M239.688,207.852v-14.946h17.683l7.843,14.946H239.688z"/>
			</g>
			<path fill="#BC2A29" d="M288.311,95.969H125.908c-19.342,0-34.992,15.665-34.992,34.983v162.396
				c0,19.332,15.65,35.006,34.992,35.006h162.402c19.317,0,34.982-15.674,34.982-35.006V130.952
				C323.293,111.633,307.628,95.969,288.311,95.969z M207.579,304.369c-50.176,0-90.847-40.672-90.847-90.848
				c0-50.172,40.671-90.849,90.847-90.849c50.168,0,90.848,40.675,90.848,90.849C298.427,263.697,257.747,304.369,207.579,304.369z"
				/>
		</g>
		<path fill="#FFFFFF" stroke="#BC2A29" stroke-width="4" stroke-miterlimit="10" d="M147.124,92.071
			c0,31.055-25.165,56.214-56.205,56.214c-31.049,0-56.212-25.16-56.212-56.214c0-31.036,25.163-56.206,56.212-56.206
			C121.959,35.865,147.124,61.035,147.124,92.071z"/>
		<g>
			<path fill="#BC2A29" d="M66.214,101.083l29.338-33.218h12.253l-5.854,33.354h6.807l-0.476,2.52h-6.808l-1.838,10.347h7.488
				l-0.341,1.974H75.268l0.34-1.974h8.168l1.702-10.347h-19.74L66.214,101.083z M69.413,100.403v0.816h16.541l4.356-24.505
				l-0.136-0.136L69.413,100.403z"/>
		</g>
	</g>
</g>
</svg>
